NUM_RANKS, 8192
CollectiveWrite, NO
CollectiveMetaWrite, NO
Total emulated compute time, 4, sec
Total_write_size, 20480, GB
Raw_write_time, 674.143, sec
Raw_write_rate, 30.379, GB/sec
Core_metadata_time, 671.047, sec
Observed_write_rate, 14.911, GB/sec
Observed_completion_time, 1377.505, sec
