NUM_RANKS, 1024
Total emulated compute time, 4, sec
Total read size, 2560, GB
Metadata_time, 3.070, sec
Raw read time, 5.218, sec
Observed completion time, 40.142, sec
Raw read rate, 490.603, GB/sec
Observed read rate, 70.831, GB/sec
