NUM_RANKS, 1024
Total emulated compute time, 120, sec
Total read size, 2560, GB
Metadata_time, 0.126, sec
Raw read time, 4.986, sec
Observed completion time, 132.543, sec
Raw read rate, 513.434, GB/sec
Observed read rate, 204.104, GB/sec
