NUM_RANKS, 2048
Total emulated compute time, 4, sec
Total read size, 5120, GB
Metadata_time, 0.248, sec
Raw read time, 35.222, sec
Observed completion time, 57.767, sec
Raw read rate, 145.365, GB/sec
Observed read rate, 95.226, GB/sec
