NUM_RANKS, 1024
CollectiveWrite, NO
CollectiveMetaWrite, NO
Total emulated compute time, 120, sec
Total_write_size, 2560, GB
Raw_write_time, 34.277, sec
Raw_write_rate, 74.686, GB/sec
Core_metadata_time, 91.870, sec
Observed_write_rate, 18.406, GB/sec
Observed_completion_time, 259.084, sec
