NUM_RANKS, 4096
Total emulated compute time, 4, sec
Total read size, 10240, GB
Metadata_time, 7.645, sec
Raw read time, 33.638, sec
Observed completion time, 55.536, sec
Raw read rate, 304.418, GB/sec
Observed read rate, 198.697, GB/sec
