NUM_RANKS, 2048
CollectiveWrite, NO
CollectiveMetaWrite, NO
Total emulated compute time, 120, sec
Total_write_size, 5120, GB
Raw_write_time, 142.654, sec
Raw_write_rate, 35.891, GB/sec
Core_metadata_time, 136.624, sec
Observed_write_rate, 17.228, GB/sec
Observed_completion_time, 417.192, sec
